<svg width="32" height="20" viewBox="0 0 32 20" fill="none" xmlns="http://www.w3.org/2000/svg">
<path d="M10.4345 0.459999L0.894531 10L10.4345 19.54L12.5645 17.425L5.13953 10L12.5645 2.575L10.4345 0.459999ZM19.4345 2.575L26.8595 10L19.4345 17.425L21.5645 19.54L31.1045 10L21.5645 0.459999L19.4345 2.575Z" fill="black" fill-opacity="0.8"/>
</svg>
